{
    "image": "http://blazonscent.unaux.com/nft/images/2.png",
    "tokenId": 2,
    "name": "MeoTest 2",
    "attributes": [
        {
            "trait_type": "Background",
            "value": "Purple"
        },
        {
            "trait_type": "Fun",
            "value": "Cigarette"
        },
        {
            "trait_type": "Snake",
            "value": "Green"
        }
    ]
}